module gitlab.com/mr_laker/datasetprocessor

go 1.20

require (
	github.com/google/uuid v1.3.0
	github.com/robfig/cron/v3 v3.0.1
	github.com/spf13/cobra v1.7.0
	github.com/spf13/viper v1.16.0
	go.temporal.io/sdk v1.23.0
)

require (
	github.com/davecgh/go-spew v1.1.1 // indirect
	github.com/facebookgo/clock v0.0.0-20150410010913-600d898af40a // indirect
	github.com/fsnotify/fsnotify v1.6.0 // indirect
	github.com/gogo/googleapis v1.4.1 // indirect
	github.com/gogo/protobuf v1.3.2 // indirect
	github.com/gogo/status v1.1.1 // indirect
	github.com/golang/mock v1.6.0 // indirect
	github.com/golang/protobuf v1.5.3 // indirect
	github.com/grpc-ecosystem/go-grpc-middleware v1.3.0 // indirect
	github.com/hashicorp/hcl v1.0.0 // indirect
	github.com/inconshreveable/mousetrap v1.1.0 // indirect
	github.com/magiconair/properties v1.8.7 // indirect
	github.com/mitchellh/mapstructure v1.5.0 // indirect
	github.com/pborman/uuid v1.2.1 // indirect
	github.com/pelletier/go-toml/v2 v2.0.8 // indirect
	github.com/pmezard/go-difflib v1.0.0 // indirect
	github.com/robfig/cron v1.2.0 // indirect
	github.com/spf13/afero v1.9.5 // indirect
	github.com/spf13/cast v1.5.1 // indirect
	github.com/spf13/jwalterweatherman v1.1.0 // indirect
	github.com/spf13/pflag v1.0.5 // indirect
	github.com/stretchr/objx v0.5.0 // indirect
	github.com/stretchr/testify v1.8.3 // indirect
	github.com/subosito/gotenv v1.4.2 // indirect
	go.temporal.io/api v1.21.0 // indirect
	go.uber.org/atomic v1.9.0 // indirect
	golang.org/x/net v0.10.0 // indirect
	golang.org/x/sys v0.8.0 // indirect
	golang.org/x/text v0.9.0 // indirect
	golang.org/x/time v0.3.0 // indirect
	google.golang.org/genproto v0.0.0-20230525154841-bd750badd5c6 // indirect
	google.golang.org/grpc v1.55.0 // indirect
	google.golang.org/protobuf v1.30.0 // indirect
	gopkg.in/ini.v1 v1.67.0 // indirect
	gopkg.in/yaml.v3 v3.0.1 // indirect
)
